{
  "project_info": {
    "project_number": "99313321795",
    "firebase_url": "https://app-noti-1157a.firebaseio.com",
    "project_id": "app-noti-1157a",
    "storage_bucket": "app-noti-1157a.appspot.com"
  },
  "client": [
    {
      "client_info": {
        "mobilesdk_app_id": "1:99313321795:android:cad541ea55ef278e67d1f6",
        "android_client_info": {
          "package_name": "com.example.app_noti"
        }
      },
      "oauth_client": [
        {
          "client_id": "99313321795-eiv0gf1dlujvs50u8v4f3mtjla7ehuj2.apps.googleusercontent.com",
          "client_type": 3
        }
      ],
      "api_key": [
        {
          "current_key": "AIzaSyCFMUiaJrSH5zcPTeFtFTQd7iVTlXPr2fg"
        }
      ],
      "services": {
        "appinvite_service": {
          "other_platform_oauth_client": [
            {
              "client_id": "99313321795-eiv0gf1dlujvs50u8v4f3mtjla7ehuj2.apps.googleusercontent.com",
              "client_type": 3
            }
          ]
        }
      }
    }
  ],
  "configuration_version": "1"
}